{
	"IcoMoonType": "selection",
	"icons": [
		{
			"icon": {
				"paths": [
					"M768 341.333h-42.667v-85.333c0-117.76-95.573-213.333-213.333-213.333s-213.333 95.573-213.333 213.333v85.333h-42.667c-46.933 0-85.333 38.4-85.333 85.333v426.667c0 46.933 38.4 85.333 85.333 85.333h512c46.933 0 85.333-38.4 85.333-85.333v-426.667c0-46.933-38.4-85.333-85.333-85.333zM512 725.333c-46.933 0-85.333-38.4-85.333-85.333s38.4-85.333 85.333-85.333 85.333 38.4 85.333 85.333-38.4 85.333-85.333 85.333zM644.267 341.333h-264.533v-85.333c0-72.96 59.307-132.267 132.267-132.267s132.267 59.307 132.267 132.267v85.333z"
				],
				"attrs": [],
				"isMulticolor": false,
				"grid": 0,
				"tags": [
					"lock"
				]
			},
			"attrs": [],
			"properties": {
				"order": 12,
				"id": 10,
				"prevSize": 32,
				"code": 59656,
				"name": "lock"
			},
			"setIdx": 0,
			"setId": 1,
			"iconIdx": 0
		},
		{
			"icon": {
				"paths": [
					"M1024 622.668v378.579h-219.476v-353.224c0-88.733-31.745-149.29-111.188-149.29-60.645 0-96.735 40.811-112.612 80.288-5.79 14.113-7.28 33.757-7.28 53.512v368.714h-219.55c0 0 2.957-598.246 0-660.229h219.529v93.585c-0.445 0.7-1.024 1.455-1.443 2.133h1.443v-2.133c29.167-44.922 81.255-109.095 197.845-109.095 144.447-0.002 252.733 94.363 252.733 297.16zM124.235 22.755c-75.108 0-124.235 49.265-124.235 114.050 0 63.373 47.705 114.133 121.321 114.133h1.467c76.562 0 124.177-50.75 124.177-114.133-1.443-64.785-47.615-114.050-122.73-114.050zM13.039 1001.247h219.467v-660.229h-219.467v660.229z"
				],
				"attrs": [],
				"isMulticolor": false,
				"grid": 0,
				"tags": [
					"linkedin"
				]
			},
			"attrs": [],
			"properties": {
				"order": 11,
				"id": 9,
				"prevSize": 32,
				"code": 59654,
				"name": "linkedin"
			},
			"setIdx": 0,
			"setId": 1,
			"iconIdx": 1
		},
		{
			"icon": {
				"paths": [
					"M282.453 460.373c61.44 120.747 160.427 219.307 281.173 281.173l93.867-93.867c11.52-11.52 28.587-15.36 43.52-10.24 47.787 15.787 99.413 24.32 152.32 24.32 23.467 0 42.667 19.2 42.667 42.667v148.907c0 23.467-19.2 42.667-42.667 42.667-400.64 0-725.333-324.693-725.333-725.333 0-23.467 19.2-42.667 42.667-42.667h149.333c23.467 0 42.667 19.2 42.667 42.667 0 53.333 8.533 104.533 24.32 152.32 4.693 14.933 1.28 31.573-10.667 43.52l-93.867 93.867z"
				],
				"attrs": [],
				"isMulticolor": false,
				"grid": 0,
				"tags": [
					"phone"
				]
			},
			"attrs": [],
			"properties": {
				"order": 9,
				"id": 8,
				"prevSize": 32,
				"code": 59655,
				"name": "phone"
			},
			"setIdx": 0,
			"setId": 1,
			"iconIdx": 2
		},
		{
			"icon": {
				"paths": [
					"M128 768h768v-85.333h-768v85.333zM128 554.667h768v-85.333h-768v85.333zM128 256v85.333h768v-85.333h-768z"
				],
				"attrs": [],
				"isMulticolor": false,
				"grid": 0,
				"tags": [
					"menu"
				]
			},
			"attrs": [],
			"properties": {
				"order": 8,
				"id": 7,
				"prevSize": 32,
				"code": 59653,
				"name": "menu"
			},
			"setIdx": 0,
			"setId": 1,
			"iconIdx": 3
		},
		{
			"icon": {
				"paths": [
					"M597.333 85.333h-341.333c-46.933 0-84.907 38.4-84.907 85.333l-0.427 682.667c0 46.933 37.973 85.333 84.907 85.333h512.427c46.933 0 85.333-38.4 85.333-85.333v-512l-256-256zM682.667 768h-341.333v-85.333h341.333v85.333zM682.667 597.333h-341.333v-85.333h341.333v85.333zM554.667 384v-234.667l234.667 234.667h-234.667z"
				],
				"attrs": [],
				"isMulticolor": false,
				"grid": 0,
				"tags": [
					"resume"
				]
			},
			"attrs": [],
			"properties": {
				"order": 7,
				"id": 6,
				"prevSize": 32,
				"code": 59652,
				"name": "resume"
			},
			"setIdx": 0,
			"setId": 1,
			"iconIdx": 4
		},
		{
			"icon": {
				"paths": [
					"M512 128c-212.053 0-384 171.947-384 384s171.947 384 384 384c35.413 0 64-28.587 64-64 0-16.64-6.4-31.573-16.64-43.093-9.813-11.093-16.213-26.027-16.213-42.24 0-35.413 28.587-64 64-64h75.52c117.76 0 213.333-95.573 213.333-213.333 0-188.587-171.947-341.333-384-341.333zM277.333 512c-35.413 0-64-28.587-64-64s28.587-64 64-64 64 28.587 64 64-28.587 64-64 64zM405.333 341.333c-35.413 0-64-28.587-64-64s28.587-64 64-64 64 28.587 64 64-28.587 64-64 64zM618.667 341.333c-35.413 0-64-28.587-64-64s28.587-64 64-64 64 28.587 64 64-28.587 64-64 64zM746.667 512c-35.413 0-64-28.587-64-64s28.587-64 64-64 64 28.587 64 64-28.587 64-64 64z"
				],
				"attrs": [],
				"isMulticolor": false,
				"grid": 0,
				"tags": [
					"interests"
				]
			},
			"attrs": [],
			"properties": {
				"order": 3,
				"id": 5,
				"prevSize": 32,
				"code": 59648,
				"name": "interests"
			},
			"setIdx": 0,
			"setId": 1,
			"iconIdx": 5
		},
		{
			"icon": {
				"paths": [
					"M768 85.333h-341.333l-255.147 256-0.853 512c0 46.933 38.4 85.333 85.333 85.333h512c46.933 0 85.333-38.4 85.333-85.333v-682.667c0-46.933-38.4-85.333-85.333-85.333zM512 341.333h-85.333v-170.667h85.333v170.667zM640 341.333h-85.333v-170.667h85.333v170.667zM768 341.333h-85.333v-170.667h85.333v170.667z"
				],
				"attrs": [],
				"isMulticolor": false,
				"grid": 0,
				"tags": [
					"projects"
				]
			},
			"attrs": [],
			"properties": {
				"order": 4,
				"id": 4,
				"prevSize": 32,
				"code": 59649,
				"name": "projects"
			},
			"setIdx": 0,
			"setId": 1,
			"iconIdx": 6
		},
		{
			"icon": {
				"paths": [
					"M853.333 170.667h-682.667c-46.933 0-84.907 38.4-84.907 85.333l-0.427 512c0 46.933 38.4 85.333 85.333 85.333h682.667c46.933 0 85.333-38.4 85.333-85.333v-512c0-46.933-38.4-85.333-85.333-85.333zM853.333 341.333l-341.333 213.333-341.333-213.333v-85.333l341.333 213.333 341.333-213.333v85.333z"
				],
				"attrs": [],
				"isMulticolor": false,
				"grid": 0,
				"tags": [
					"contact"
				]
			},
			"attrs": [],
			"properties": {
				"order": 5,
				"id": 3,
				"prevSize": 32,
				"code": 59650,
				"name": "contact"
			},
			"setIdx": 0,
			"setId": 1,
			"iconIdx": 7
		},
		{
			"icon": {
				"paths": [
					"M810.667 128h-597.333c-46.933 0-85.333 38.4-85.333 85.333v597.333c0 46.933 38.4 85.333 85.333 85.333h597.333c46.933 0 85.333-38.4 85.333-85.333v-597.333c0-46.933-38.4-85.333-85.333-85.333zM384 725.333h-85.333v-298.667h85.333v298.667zM554.667 725.333h-85.333v-426.667h85.333v426.667zM725.333 725.333h-85.333v-170.667h85.333v170.667z"
				],
				"attrs": [],
				"isMulticolor": false,
				"grid": 0,
				"tags": [
					"work"
				]
			},
			"attrs": [],
			"properties": {
				"order": 6,
				"id": 2,
				"prevSize": 32,
				"code": 59651,
				"name": "work"
			},
			"setIdx": 0,
			"setId": 1,
			"iconIdx": 8
		}
	],
	"height": 1024,
	"metadata": {
		"name": "icomoon"
	},
	"preferences": {
		"showGlyphs": true,
		"showCodes": true,
		"showQuickUse": true,
		"showQuickUse2": true,
		"showSVGs": true,
		"fontPref": {
			"prefix": "icon-",
			"metadata": {
				"fontFamily": "icomoon"
			},
			"metrics": {
				"emSize": 1024,
				"baseline": 6.25,
				"whitespace": 50
			},
			"embed": false
		},
		"imagePref": {
			"prefix": "icon-",
			"png": true,
			"useClassSelector": true,
			"color": 0,
			"bgColor": 16777215
		},
		"historySize": 100,
		"gridSize": 16
	}
}