{
	"title": "CW Intrusion Detection System",
	"stub": "cwids",
	"subtitle": "Custom Intrusion Detection System for the sepcific needs of a web hosting company",
	"client": "Cyber Wurx, LLC",
	"cover": "/assets/images/cyberwurx_site.jpg",
	"cover_secure": "/assets/images/cyberwurx_site.jpg",
	"secure": true,
	"description": "The CW IDS integrated specific attack signatures, a synchronized iptables list, grsecurity patches, and a custom php module to provide one of the best protection systems a large scale web host has ever had. By using a custom system, Cyber Wurx was able to set extremely specific traps to catch intruders before damage could be done. The intrusion detection system could narrow down specific root cause PHP files, automatically quarantine them, and ban the intruder network wide. Notification to the technicians was done via CWAPI and it was relayed to the company status chat.",
	"role": "Design, creation, and implementation",
	"skills": [
		"[Database] 'Big Data' database layout for global server logging",
		"[Network] Understanding and implementation of network firewall rules",
		"[Sysadmin] Understanding specific signs of system attacks",
		"[PHP Module Programming] Created a PHP module in C to track specific files and the source of execution"
	],
	"photos": [
		{
			"url": "",
			"caption": ""
		}
	]
}