{
	"title": "CW API",
	"subtitle": "A REST API with far-reaching powers, from server power control to label printing.",
	"client": "Cyber Wurx, LLC",
	"stub": "cwwebapi",
	"cover": "/assets/images/20160502_150247.jpg",
	"description": "The CW API began as an identified need: the need for remote software control of custom system software. It is designed as an extensive modular system with easily addable end-points for future growth. A new end-point can be added in as little as 15 seconds.\n\nSome of the features of this system include: Provisioning servers, creating client accounts, full billing integration (suspending a customer will automatically power down their equipment), and facility environmental status. The system includes over 50 major modules.",
	"role": "Creation, design, installation and support",
	"skills": [
		"[Backend Programming] Perl (Legacy System Requirement)",
		"[DevOps] Integrating API on server every system",
		"[Database] Full ORM support and load-reducing memory caching",
		"[API Planning] Creating a consistent model for every module to follow"
	]
}