{
	"title": "This Portfolio",
	"stub": "thissite",
	"subtitle": "Custom portfolio created with the latest frontend and backend design techniques",
	"client": "Greg Pries",
	"cover": "/assets/images/gpportfolio.jpg",
	"description": "Rather than the usual Wordpress & template setup, I opted to create a clean, fast, and simple portfolio showcasing some of my design and techniques. The portfolio is based on React, which is commonly a javascript rendering engine that requires browser execution for display. I've integrated React in the server side as well, so pages are pre-rendered prior to being sent to the browser, where it picks up the code and continues seamless execution. It can function without javascript enabled in the browser at all, except for the unlocking functions. Sensitive data is securely hidden behind customizable lock codes, which can be enabled and disabled.<br><br>Ever part of each page is divided into re-usable components. A project preview pane can be put anywhere, and include the full locked/unlocked code within it.",
	"role": "Design and programming",
	"skills": [
		"[Frontend Programming] React.js, HTML5, CSS3, Gulp, Browserify",
		"[Backend Programming] Node.js, React.js",
		"[Graphic Design] Illustrator and Photoshop"
	],
	"photos": [
		{
			"url": "/assets/images/thisportfoliosublime.JPG",
			"caption": "Codebase featuring one of the configurable JSON project files."
		},
		{
			"url": "/assets/images/thisportfoliosublime2.JPG",
			"caption": "The code for the main page, illustrating some reusable components."
		}
	]
}